Lab7/Lab7_PreLab/DesignA/simulation/qsim/DesignA.msim.vcd
$comment
	File created using the following command:
		vcd file DesignA.msim.vcd -direction
$end
$date
	Sun Oct 20 13:34:12 2019
$end
$version
	ModelSim Version 10.4d
$end
$timescale
	1ps
$end

$scope module DesignA_vlg_vec_tst $end
$var reg 1 ! A $end
$var reg 1 " B $end
$var reg 1 # C $end
$var reg 1 $ G $end
$var wire 1 % F $end

$scope module i1 $end
$var wire 1 & gnd $end
$var wire 1 ' vcc $end
$var wire 1 ( unknown $end
$var tri1 1 ) devclrn $end
$var tri1 1 * devpor $end
$var tri1 1 + devoe $end
$var wire 1 , A~input_o $end
$var wire 1 - ~QUARTUS_CREATED_GND~I_combout $end
$var wire 1 . B~input_o $end
$var wire 1 / C~input_o $end
$var wire 1 0 G~input_o $end
$var wire 1 1 inst|sub|85~0_combout $end
$upscope $end
$upscope $end
$enddefinitions $end
#0
$dumpvars
0!
0"
0#
0$
1%
0&
1'
x(
1)
1*
1+
0,
0-
0.
0/
00
11
$end
#20000
1!
1,
#40000
1"
0!
1.
0,
#60000
1!
1,
#80000
1#
0"
0!
1/
0.
0,
01
0%
#100000
1!
1,
#120000
1"
0!
1.
0,
11
1%
#140000
1!
1,
