Lab2/Lab2_Prelab/designA/simulation/qsim/designA.msim.vcd
$comment
	File created using the following command:
		vcd file designA.msim.vcd -direction
$end
$date
	Sun Sep 08 21:07:49 2019
$end
$version
	ModelSim Version 10.4d
$end
$timescale
	1ps
$end

$scope module designA_vlg_vec_tst $end
$var reg 1 ! a $end
$var reg 1 " b $end
$var reg 1 # c $end
$var wire 1 $ f $end

$scope module i1 $end
$var wire 1 % gnd $end
$var wire 1 & vcc $end
$var wire 1 ' unknown $end
$var tri1 1 ( devclrn $end
$var tri1 1 ) devpor $end
$var tri1 1 * devoe $end
$var wire 1 + ~QUARTUS_CREATED_GND~I_combout $end
$var wire 1 , b~input_o $end
$var wire 1 - c~input_o $end
$var wire 1 . a~input_o $end
$var wire 1 / f~0_combout $end
$upscope $end
$upscope $end
$enddefinitions $end
#0
$dumpvars
0!
0"
0#
1$
0%
1&
x'
1(
1)
1*
0+
0,
0-
0.
0/
$end
#10000
1!
1.
1/
0$
#20000
1"
0!
1,
0.
#30000
1!
1.
0/
1$
#40000
1#
0"
0!
1-
0,
0.
1/
0$
#50000
1!
1.
0/
1$
#60000
1"
0!
1,
0.
#70000
1!
1.
1/
0$
#80000
0#
0"
0!
0-
0,
0.
0/
1$
#90000
1!
1.
1/
0$
#100000
1"
0!
1,
0.
#110000
1!
1.
0/
1$
#120000
1#
0"
0!
1-
0,
0.
1/
0$
#130000
1!
1.
0/
1$
#140000
1"
0!
1,
0.
#150000
1!
1.
1/
0$
#160000
0#
0"
0!
0-
0,
0.
0/
1$
#170000
1!
1.
1/
0$
#180000
1"
0!
1,
0.
#190000
1!
1.
0/
1$
#200000
1#
0"
0!
1-
0,
0.
1/
0$
#210000
1!
1.
0/
1$
#220000
1"
0!
1,
0.
#230000
1!
1.
1/
0$
#240000
0#
0"
0!
0-
0,
0.
0/
1$
#250000
1!
1.
1/
0$
#260000
1"
0!
1,
0.
#270000
1!
1.
0/
1$
#280000
1#
0"
0!
1-
0,
0.
1/
0$
#290000
1!
1.
0/
1$
#300000
1"
0!
1,
0.
#310000
1!
1.
1/
0$
#320000
0#
0"
0!
0-
0,
0.
0/
1$
#330000
1!
1.
1/
0$
#340000
1"
0!
1,
0.
#350000
1!
1.
0/
1$
#360000
1#
0"
0!
1-
0,
0.
1/
0$
#370000
1!
1.
0/
1$
#380000
1"
0!
1,
0.
#390000
1!
1.
1/
0$
#400000
0#
0"
0!
0-
0,
0.
0/
1$
#410000
1!
1.
1/
0$
#420000
1"
0!
1,
0.
#430000
1!
1.
0/
1$
#440000
1#
0"
0!
1-
0,
0.
1/
0$
#450000
1!
1.
0/
1$
#460000
1"
0!
1,
0.
#470000
1!
1.
1/
0$
#480000
0#
0"
0!
0-
0,
0.
0/
1$
#490000
1!
1.
1/
0$
#500000
1"
0!
1,
0.
#510000
1!
1.
0/
1$
#520000
1#
0"
0!
1-
0,
0.
1/
0$
#530000
1!
1.
0/
1$
#540000
1"
0!
1,
0.
#550000
1!
1.
1/
0$
#560000
0#
0"
0!
0-
0,
0.
0/
1$
#570000
1!
1.
1/
0$
#580000
1"
0!
1,
0.
#590000
1!
1.
0/
1$
#600000
1#
0"
0!
1-
0,
0.
1/
0$
#610000
1!
1.
0/
1$
#620000
1"
0!
1,
0.
#630000
1!
1.
1/
0$
#640000
0#
0"
0!
0-
0,
0.
0/
1$
#650000
1!
1.
1/
0$
#660000
1"
0!
1,
0.
#670000
1!
1.
0/
1$
#680000
1#
0"
0!
1-
0,
0.
1/
0$
#690000
1!
1.
0/
1$
#700000
1"
0!
1,
0.
#710000
1!
1.
1/
0$
#720000
0#
0"
0!
0-
0,
0.
0/
1$
#730000
1!
1.
1/
0$
#740000
1"
0!
1,
0.
#750000
1!
1.
0/
1$
#760000
1#
0"
0!
1-
0,
0.
1/
0$
#770000
1!
1.
0/
1$
#780000
1"
0!
1,
0.
#790000
1!
1.
1/
0$
#800000
0#
0"
0!
0-
0,
0.
0/
1$
#810000
1!
1.
1/
0$
#820000
1"
0!
1,
0.
#830000
1!
1.
0/
1$
#840000
1#
0"
0!
1-
0,
0.
1/
0$
#850000
1!
1.
0/
1$
#860000
1"
0!
1,
0.
#870000
1!
1.
1/
0$
#880000
0#
0"
0!
0-
0,
0.
0/
1$
#890000
1!
1.
1/
0$
#900000
1"
0!
1,
0.
#910000
1!
1.
0/
1$
#920000
1#
0"
0!
1-
0,
0.
1/
0$
#930000
1!
1.
0/
1$
#940000
1"
0!
1,
0.
#950000
1!
1.
1/
0$
#960000
0#
0"
0!
0-
0,
0.
0/
1$
#970000
1!
1.
1/
0$
#980000
1"
0!
1,
0.
#990000
1!
1.
0/
1$
