Lab6/Lab6_PreLab/designA/simulation/qsim/designA.msim.vcd
$comment
	File created using the following command:
		vcd file designA.msim.vcd -direction
$end
$date
	Sun Oct 06 22:08:48 2019
$end
$version
	ModelSim Version 10.4d
$end
$timescale
	1ps
$end

$scope module designA_vlg_vec_tst $end
$var reg 1 ! Cin $end
$var reg 1 " x0 $end
$var reg 1 # x1 $end
$var reg 1 $ x2 $end
$var reg 1 % x3 $end
$var reg 1 & y0 $end
$var reg 1 ' y1 $end
$var reg 1 ( y2 $end
$var reg 1 ) y3 $end
$var wire 1 * Cout $end
$var wire 1 + Over $end
$var wire 1 , s0 $end
$var wire 1 - s1 $end
$var wire 1 . s2 $end
$var wire 1 / s3 $end

$scope module i1 $end
$var wire 1 0 gnd $end
$var wire 1 1 vcc $end
$var wire 1 2 unknown $end
$var tri1 1 3 devclrn $end
$var tri1 1 4 devpor $end
$var tri1 1 5 devoe $end
$var wire 1 6 ~QUARTUS_CREATED_GND~I_combout $end
$var wire 1 7 x3~input_o $end
$var wire 1 8 y3~input_o $end
$var wire 1 9 x2~input_o $end
$var wire 1 : y0~input_o $end
$var wire 1 ; Cin~input_o $end
$var wire 1 < x1~input_o $end
$var wire 1 = x0~input_o $end
$var wire 1 > y1~input_o $end
$var wire 1 ? stage1|Cout~0_combout $end
$var wire 1 @ y2~input_o $end
$var wire 1 A stage3|s~combout $end
$var wire 1 B stage2|s~combout $end
$var wire 1 C stage1|s~combout $end
$var wire 1 D stage0|s~combout $end
$var wire 1 E stage3|Cout~0_combout $end
$var wire 1 F Over~0_combout $end
$upscope $end
$upscope $end
$enddefinitions $end
#0
$dumpvars
1!
1"
0#
1$
0%
0&
1'
0(
0)
1*
1+
1,
1-
0.
0/
00
11
x2
13
14
15
06
07
08
19
0:
1;
0<
1=
1>
0?
0@
1A
1B
0C
0D
1E
1F
$end
#20000
1%
0$
1#
17
09
1<
1C
1?
0B
0F
0+
1.
0-
1B
0A
1/
0.
#40000
1)
1(
18
1@
0B
1F
0E
0*
1+
1.
#60000
0%
1$
0)
0(
07
19
08
0@
1A
1E
1*
0/
#80000
1)
1(
18
1@
1B
0A
0F
0E
0*
0+
1/
0.
#100000
0#
1%
0$
0<
17
09
0B
0C
0?
1F
1+
1-
1.
1B
0.
#120000
0)
0(
1#
08
0@
1<
1C
1?
0B
1A
0F
1E
1*
0+
0/
1.
0-
1B
0A
1/
0.
#140000
0%
1$
0#
07
19
0<
0C
0?
0B
1A
1F
1+
0/
1.
1-
1B
0.
#160000
0"
0'
1&
1(
1%
0=
0>
1:
1@
17
0B
0F
0+
1.
