Lab5/Lab5_PreLab/designA/simulation/qsim/designA.msim.vcd
$comment
	File created using the following command:
		vcd file designA.msim.vcd -direction
$end
$date
	Sun Sep 29 12:34:42 2019
$end
$version
	ModelSim Version 10.4d
$end
$timescale
	1ps
$end

$scope module designA_vlg_vec_tst $end
$var reg 1 ! Cin $end
$var reg 4 " X [3:0] $end
$var reg 4 # Y [3:0] $end
$var wire 1 $ Cout $end
$var wire 1 % Over $end
$var wire 1 & S [3] $end
$var wire 1 ' S [2] $end
$var wire 1 ( S [1] $end
$var wire 1 ) S [0] $end

$scope module i1 $end
$var wire 1 * gnd $end
$var wire 1 + vcc $end
$var wire 1 , unknown $end
$var tri1 1 - devclrn $end
$var tri1 1 . devpor $end
$var tri1 1 / devoe $end
$var wire 1 0 ~QUARTUS_CREATED_GND~I_combout $end
$var wire 1 1 Y[0]~input_o $end
$var wire 1 2 X[0]~input_o $end
$var wire 1 3 Cin~input_o $end
$var wire 1 4 _~1_sumout $end
$var wire 1 5 X[1]~input_o $end
$var wire 1 6 Y[1]~input_o $end
$var wire 1 7 _~2 $end
$var wire 1 8 _~3 $end
$var wire 1 9 _~5_sumout $end
$var wire 1 : Y[2]~input_o $end
$var wire 1 ; X[2]~input_o $end
$var wire 1 < _~6 $end
$var wire 1 = _~7 $end
$var wire 1 > _~9_sumout $end
$var wire 1 ? X[3]~input_o $end
$var wire 1 @ Y[3]~input_o $end
$var wire 1 A _~10 $end
$var wire 1 B _~11 $end
$var wire 1 C _~13_sumout $end
$var wire 1 D _~14 $end
$var wire 1 E _~15 $end
$var wire 1 F _~17_sumout $end
$var wire 1 G Over~0_combout $end
$upscope $end
$upscope $end
$enddefinitions $end
#0
$dumpvars
1!
b10 "
b11 #
0$
0%
0)
1(
1'
0&
0*
1+
x,
1-
1.
1/
00
11
02
13
04
15
16
07
18
19
0:
0;
0<
1=
1>
0?
0@
0A
0B
0C
0D
0E
0F
0G
$end
#20000
0!
b110 "
b111 "
b1011 #
b1111 #
b1110 #
03
01
1:
1@
12
1;
1B
08
14
1G
1C
1&
1%
1)
1D
0C
09
0G
0%
0(
0&
1F
1G
1%
1$
0G
0%
#40000
b1111 "
b1101 "
1!
b1100 "
b110 #
b10 #
13
0:
0@
02
05
1?
0=
1A
0B
19
0>
0'
1(
0A
1>
1'
0D
1C
1&
0F
1G
1%
0$
0G
0%
#60000
b1000 "
b1010 "
0!
b1011 "
b1010 #
b1110 #
03
1:
1@
12
15
0;
1=
1E
09
1G
0C
0&
1%
0(
1A
0>
1F
0G
0%
1$
0'
1C
1G
1%
1&
0G
0%
#80000
b11 "
b111 "
1!
b110 #
b10 #
13
0:
0@
1;
0?
0E
18
04
0)
0F
19
1(
0$
1G
1%
#100000
0!
b1010 #
b1110 #
03
1:
1@
1D
0A
1B
08
0G
0C
1>
14
1)
1'
0&
0%
1F
09
1G
1%
0(
1$
0G
0%
#120000
b101 "
b1101 "
b1001 "
1!
b110 #
b10 #
13
0:
0@
05
0;
1?
0B
0=
18
19
04
0)
1(
0D
1<
1C
0>
09
0(
0'
1&
0F
1>
1G
1%
1'
0$
0G
0%
#140000
0!
b1010 #
b1110 #
03
1:
1@
1E
1A
08
1G
0C
0>
14
1)
0'
0&
1%
0<
1F
1C
19
0G
0%
1(
1&
1$
0A
1>
1'
0C
0&
1G
1%
